<?xml version="1.0" encoding="utf-8"?>
<!-- Generator: Adobe Illustrator 25.0.1, SVG Export Plug-In . SVG Version: 6.00 Build 0)  -->
<svg version="1.1" id="Layer_1" xmlns="http://www.w3.org/2000/svg" xmlns:xlink="http://www.w3.org/1999/xlink" x="0px" y="0px"
	 viewBox="0 0 600 600" style="enable-background:new 0 0 600 600;" xml:space="preserve">
<style type="text/css">
	.st0{fill:#21468B;}
	.st1{fill:#FFFFFF;}
	.st2{fill:#AE1C28;}
</style>
<rect class="st0" width="600" height="600"/>
<rect class="st1" width="600" height="400"/>
<rect class="st2" width="600" height="200"/>
</svg>
